{
    "isFolder": true, "name": "root", "content": [
                                                  {
                                                  "isFolder": true, "name": "folder1", "content": [
                                                                                                   {"isFolder": true, "name":"folder11", "content": [
                                                                                                                                                     {"isFolder": true, "name":"folder111", "content": [
                                                                                                                                                                                                        {"isFolder": true, "name":"folder1111", "content": [
                                                                                                                                                                                                                                                            {"isFolder": true,"name":"folder11111","content": []}
                                                                                                                                                                                                                                                            ]}
                                                                                                                                                                                                        ]}
                                                                                                                                                     ]
                                                                                                   },
                                                                                                   {
                                                                                                   "isFolder": true, "name": "folder12", "content": []
                                                                                                   },
                                                                                                   {
                                                                                                   "isFolder": false, "name": "Some file", "content": "Some file", "icon": "https://openclipart.org/image/2400px/svg_to_png/211735/matt-icons_file-x-generic.png"
                                                                                                   },
                                                                                                   {
                                                                                                   "isFolder": false, "name": "New interesting file", "content": "New interesting file", "icon": "https://cdn3.iconfinder.com/data/icons/brands-applications/512/File-512.png"
                                                                                                   }
                                                                                                   ]
                                                  },
                                                  {
                                                  "isFolder": true, "name": "folder2", "content": []
                                                  },
                                                  {
                                                  "isFolder": false, "name": "file1", "content": "File 1", "icon": "https://upload.wikimedia.org/wikipedia/commons/thumb/3/35/Wikiversity-Mooc-Icon-Script.svg/2000px-Wikiversity-Mooc-Icon-Script.svg.png"
                                                  }
                                                  ]
}

